USEA,11114,4998,143.68,94.04,93.33,2008
USEA2009,9667,5349,39.41,56.35,60.23,2009
USEA,9441,5475,75,74.71,76.5,2010
USEA,8450,5643,126.64,95.73,102.92,2011
USEA,7393,6497,118.9,94.52,101,2012
USEA,6237,7466,118.90,95.99,96.99,2013
USEA,5065,8753,62,87.39,88.16,2014
USEA,4711,9408,36,44.39,45.38,2015
USEA,4795,8857,26,38.29,38.56,2016
USEA,7393,6497,118.9,94.52,101,2017
